module gitlab.com/maeldonn/golang-assignment-week-17

go 1.22.2

require (
	github.com/stretchr/testify v1.9.0
	go.mongodb.org/mongo-driver v1.15.0
)

require (
	github.com/davecgh/go-spew v1.1.1 // indirect
	github.com/golang/snappy v0.0.4 // indirect
	github.com/klauspost/compress v1.17.8 // indirect
	github.com/montanaflynn/stats v0.7.1 // indirect
	github.com/pmezard/go-difflib v1.0.0 // indirect
	github.com/xdg-go/pbkdf2 v1.0.0 // indirect
	github.com/xdg-go/scram v1.1.2 // indirect
	github.com/xdg-go/stringprep v1.0.4 // indirect
	github.com/youmark/pkcs8 v0.0.0-20240424034433-3c2c7870ae76 // indirect
	golang.org/x/crypto v0.22.0 // indirect
	golang.org/x/sync v0.7.0 // indirect
	golang.org/x/text v0.14.0 // indirect
	gopkg.in/check.v1 v1.0.0-20201130134442-10cb98267c6c // indirect
	gopkg.in/yaml.v3 v3.0.1 // indirect
)
